{"page":1,"links":{"next":"/api/basic?p=2&s=10&t=","self":"/api/basic?p=1&s=10&t=","prev":null},"size":10,"total":27961,"hits":[{"extra":[{"field":"serial","value":"61923"},{"value":"Deceased 4 Sept 45","field":"health"}],"source":{"id":"https:/citizenship.freizo.org/folios/12253","manifest":"https://citizenship.freizo.org/iiif/manifest/12253","selector":{"canvas":"https://citizenship.freizo.org/image/12253/canvas/p5"}},"location":[{"association":"interred","transcription":"Citadelle Hanoi, FIC"},{"association":"next of kin residence","transcription":"None"}],"organization":{"transcription":"French Foreign Legion"},"name":{"familyname":"Seibert","givennames":"Ernest"},"date":{"reference":"1945-09"},"status":"interred person","meta":{"actions":[{"date":"2019-05","summary":"source document accession","actor":{"name":"Data Futures GmbH","identifier":"https://data-futures.org/","scheme":"url"}},{"actor":{"name":"Data Futures GmbH","identifier":"https://data-futures.org/","scheme":"url"},"summary":"OCR and annotation creation","date":"2019-06"},{"summary":"OCR correction","actor":{"scheme":"orcid","identifier":"0000-0002-1871-236X","name":"Christian Futter"},"date":"2019-08"}],"version":"1","partof":{"title":"Citizenship Lists","id":"https://doi.org/10.5281/zenodo.5666547"},"tags":["internment_lists"],"generated":"2021-11"}},{"meta":{"tags":["internment_lists"],"partof":{"title":"Citizenship Lists","id":"https://doi.org/10.5281/zenodo.5666547"},"generated":"2021-11","actions":[{"date":"2019-05","summary":"source document accession","actor":{"name":"Data Futures GmbH","scheme":"url","identifier":"https://data-futures.org/"}},{"summary":"OCR and annotation creation","actor":{"identifier":"https://data-futures.org/","scheme":"url","name":"Data Futures GmbH"},"date":"2019-06"},{"date":"2019-08","summary":"OCR correction","actor":{"identifier":"0000-0002-1871-236X","scheme":"orcid","name":"Christian Futter"}}],"version":"1"},"status":"interred person","date":{"reference":"1945-09"},"organization":{"transcription":"French Foreign Legion"},"location":[{"transcription":"Citadelle Hanoi, FIC","association":"interred"},{"association":"next of kin residence","transcription":"Cagnes-sur-Mer / France"}],"name":{"familyname":"Schroder","givennames":"Rudolph"},"source":{"id":"https:/citizenship.freizo.org/folios/12253","selector":{"canvas":"https://citizenship.freizo.org/image/12253/canvas/p3"},"manifest":"https://citizenship.freizo.org/iiif/manifest/12253"},"extra":[{"field":"serial","value":"86651"},{"field":"health","value":"NP-A"},{"field":"nextofkin_relation","value":"Yes"}]},{"name":{"familyname":"Schroer","givennames":"Hermann"},"location":[{"association":"interred","transcription":"Citadelle Hanoi, FIC"},{"association":"next of kin residence","transcription":"None"}],"organization":{"transcription":"French Foreign Legion"},"status":"interred person","date":{"reference":"1945-09"},"meta":{"version":"1","actions":[{"actor":{"name":"Data Futures GmbH","identifier":"https://data-futures.org/","scheme":"url"},"summary":"source document accession","date":"2019-05"},{"actor":{"scheme":"url","identifier":"https://data-futures.org/","name":"Data Futures GmbH"},"summary":"OCR and annotation creation","date":"2019-06"},{"date":"2019-08","summary":"OCR correction","actor":{"name":"Christian Futter","scheme":"orcid","identifier":"0000-0002-1871-236X"}}],"generated":"2021-11","partof":{"title":"Citizenship Lists","id":"https://doi.org/10.5281/zenodo.5666547"},"tags":["internment_lists"]},"extra":[{"field":"serial","value":"74859"},{"field":"health","value":"NP-A"}],"source":{"manifest":"https://citizenship.freizo.org/iiif/manifest/12253","selector":{"canvas":"https://citizenship.freizo.org/image/12253/canvas/p3"},"id":"https:/citizenship.freizo.org/folios/12253"}},{"date":{"ref":"1945-07-25"},"meta":{"actions":[{"date":"2022-05","identifier":"https://orcid.org/0000-0002-1871-236X","actor":"Christian Futter","summary":"transcribed from source"},{"identifier":"https://data-futures.org","date":"2022-05-24","actor":"data-futures.org","summary":"historic person entry JSON created"}],"partof":"https://dpc.ei-basel.hasdai.org/records/09z0z-6da78","tags":["internment_lists"]},"name":{"familyname":"Perroche"},"_schema":"https://schemata.hasdai.org/historic-persons/historic-person-entry-v1.0.2.json","occupation":{"transcription":"Controleur General de Police, Municipalite Hanoi"},"extra":[{"field":"remark","value":"PERSONNALITES EUROPEENES"}],"source":{"canvas":"https://dpc.ei-basel.hasdai.org/api/records/09z0z-6da78/iiif/canvas/page_004.jpg","manifest":"https://dpc.ei-basel.hasdai.org/api/records/09z0z-6da78/iiif/manifest"}},{"extra":[{"value":"71714","field":"serial"},{"field":"health","value":"NP-A"}],"source":{"manifest":"https://citizenship.freizo.org/iiif/manifest/12253","selector":{"canvas":"https://citizenship.freizo.org/image/12253/canvas/p3"},"id":"https:/citizenship.freizo.org/folios/12253"},"status":"interred person","date":{"reference":"1945-09"},"meta":{"version":"1","actions":[{"date":"2019-05","summary":"source document accession","actor":{"name":"Data Futures GmbH","scheme":"url","identifier":"https://data-futures.org/"}},{"date":"2019-06","actor":{"identifier":"https://data-futures.org/","scheme":"url","name":"Data Futures GmbH"},"summary":"OCR and annotation creation"},{"actor":{"identifier":"0000-0002-1871-236X","scheme":"orcid","name":"Christian Futter"},"summary":"OCR correction","date":"2019-08"}],"generated":"2021-11","tags":["internment_lists"],"partof":{"title":"Citizenship Lists","id":"https://doi.org/10.5281/zenodo.5666547"}},"location":[{"association":"interred","transcription":"Citadelle Hanoi, FIC"},{"transcription":"None","association":"next of kin residence"}],"organization":{"transcription":"French Foreign Legion"},"name":{"familyname":"Schroetter","givennames":"Chail"}},{"status":"interred person","date":{"reference":"1945-09"},"meta":{"generated":"2021-11","tags":["internment_lists"],"partof":{"id":"https://doi.org/10.5281/zenodo.5666547","title":"Citizenship Lists"},"version":"1","actions":[{"date":"2019-05","actor":{"identifier":"https://data-futures.org/","scheme":"url","name":"Data Futures GmbH"},"summary":"source document accession"},{"date":"2019-06","summary":"OCR and annotation creation","actor":{"name":"Data Futures GmbH","scheme":"url","identifier":"https://data-futures.org/"}},{"actor":{"name":"Christian Futter","scheme":"orcid","identifier":"0000-0002-1871-236X"},"summary":"OCR correction","date":"2019-08"}]},"name":{"familyname":"Schuchna","givennames":"Adolf"},"location":[{"association":"interred","transcription":"Citadelle Hanoi, FIC"},{"transcription":"None","association":"next of kin residence"}],"organization":{"transcription":"French Foreign Legion"},"extra":[{"field":"serial","value":"62490"},{"field":"health","value":"NP-A"}],"source":{"selector":{"canvas":"https://citizenship.freizo.org/image/12253/canvas/p3"},"manifest":"https://citizenship.freizo.org/iiif/manifest/12253","id":"https:/citizenship.freizo.org/folios/12253"}},{"status":"interred person","date":{"reference":"1945-09"},"meta":{"generated":"2021-11","tags":["internment_lists"],"partof":{"title":"Citizenship Lists","id":"https://doi.org/10.5281/zenodo.5666547"},"version":"1","actions":[{"date":"2019-05","actor":{"scheme":"url","identifier":"https://data-futures.org/","name":"Data Futures GmbH"},"summary":"source document accession"},{"summary":"OCR and annotation creation","actor":{"identifier":"https://data-futures.org/","scheme":"url","name":"Data Futures GmbH"},"date":"2019-06"},{"date":"2019-08","summary":"OCR correction","actor":{"name":"Christian Futter","scheme":"orcid","identifier":"0000-0002-1871-236X"}}]},"location":[{"association":"interred","transcription":"Citadelle Hanoi, FIC"},{"association":"next of kin residence","transcription":"None"}],"organization":{"transcription":"French Foreign Legion"},"name":{"familyname":"Schuliez","givennames":"Jacob"},"extra":[{"field":"serial","value":"60424"},{"value":"NP-A","field":"health"}],"source":{"id":"https:/citizenship.freizo.org/folios/12253","selector":{"canvas":"https://citizenship.freizo.org/image/12253/canvas/p3"},"manifest":"https://citizenship.freizo.org/iiif/manifest/12253"}},{"location":[{"transcription":"Citadelle Hanoi, FIC","association":"interred"},{"transcription":"None","association":"next of kin residence"}],"organization":{"transcription":"French Foreign Legion"},"name":{"familyname":"Schulte","givennames":"Hugo"},"status":"interred person","date":{"reference":"1945-09"},"meta":{"actions":[{"date":"2019-05","actor":{"scheme":"url","identifier":"https://data-futures.org/","name":"Data Futures GmbH"},"summary":"source document accession"},{"actor":{"scheme":"url","identifier":"https://data-futures.org/","name":"Data Futures GmbH"},"summary":"OCR and annotation creation","date":"2019-06"},{"actor":{"identifier":"0000-0002-1871-236X","scheme":"orcid","name":"Christian Futter"},"summary":"OCR correction","date":"2019-08"}],"version":"1","tags":["internment_lists"],"partof":{"id":"https://doi.org/10.5281/zenodo.5666547","title":"Citizenship Lists"},"generated":"2021-11"},"extra":[{"value":"66175","field":"serial"},{"field":"health","value":"NP-A"}],"source":{"selector":{"canvas":"https://citizenship.freizo.org/image/12253/canvas/p3"},"manifest":"https://citizenship.freizo.org/iiif/manifest/12253","id":"https:/citizenship.freizo.org/folios/12253"}},{"meta":{"version":"1","actions":[{"date":"2019-05","summary":"source document accession","actor":{"name":"Data Futures GmbH","scheme":"url","identifier":"https://data-futures.org/"}},{"date":"2019-06","summary":"OCR and annotation creation","actor":{"name":"Data Futures GmbH","scheme":"url","identifier":"https://data-futures.org/"}},{"summary":"OCR correction","actor":{"name":"Christian Futter","identifier":"0000-0002-1871-236X","scheme":"orcid"},"date":"2019-08"}],"generated":"2021-11","partof":{"id":"https://doi.org/10.5281/zenodo.5666547","title":"Citizenship Lists"},"tags":["internment_lists"]},"date":{"reference":"1945-09"},"status":"interred person","organization":{"transcription":"French Foreign Legion"},"location":[{"transcription":"Citadelle Hanoi, FIC","association":"interred"},{"association":"next of kin residence","transcription":"None"}],"name":{"familyname":"Schumacher","givennames":"Walter"},"source":{"selector":{"canvas":"https://citizenship.freizo.org/image/12253/canvas/p3"},"manifest":"https://citizenship.freizo.org/iiif/manifest/12253","id":"https:/citizenship.freizo.org/folios/12253"},"extra":[{"field":"serial","value":"61396"},{"value":"NP-A","field":"health"}]},{"extra":[{"field":"serial","value":"70477"},{"value":"NP-A","field":"health"},{"field":"nextofkin_relation","value":"Yes"}],"source":{"selector":{"canvas":"https://citizenship.freizo.org/image/12253/canvas/p5"},"manifest":"https://citizenship.freizo.org/iiif/manifest/12253","id":"https:/citizenship.freizo.org/folios/12253"},"date":{"reference":"1945-09"},"status":"interred person","meta":{"tags":["internment_lists"],"partof":{"id":"https://doi.org/10.5281/zenodo.5666547","title":"Citizenship Lists"},"generated":"2021-11","actions":[{"date":"2019-05","actor":{"name":"Data Futures GmbH","scheme":"url","identifier":"https://data-futures.org/"},"summary":"source document accession"},{"summary":"OCR and annotation creation","actor":{"identifier":"https://data-futures.org/","scheme":"url","name":"Data Futures GmbH"},"date":"2019-06"},{"date":"2019-08","actor":{"scheme":"orcid","identifier":"0000-0002-1871-236X","name":"Christian Futter"},"summary":"OCR correction"}],"version":"1"},"location":[{"association":"interred","transcription":"Citadelle Hanoi, FIC"},{"transcription":"Essen / Allemagne","association":"next of kin residence"}],"organization":{"transcription":"French Foreign Legion"},"name":{"familyname":"Schutteler","givennames":"Jean"}}]}